problem,solution
600000002070109080002060500060701030004000700080602040003010400040803010100000003,000000000000000000000000000000000000000000000000000000000000000000000000000000000
010090050800406007002000900060905040900000003070201090005000300600508009090020060,000000000000000000000000000000000000000000000000000000000000000000000000000000000
002007003040090010800600900400500800030080040008006002006009005010020070300700200,000000000000000000000000000000000000000000000000000000000000000000000000000000000
003600009010080040200004800800002700060010050007800006001500002090020030500001900,000000000000000000000000000000000000000000000000000000000000000000000000000000000
004900008060050090800007400500001300070020050008500007001600004020090030700003600,000000000000000000000000000000000000000000000000000000000000000000000000000000000
060000080800403006004070100090000010007020300030000060009010500400507009080000040,000000000000000000000000000000000000000000000000000000000000000000000000000000000
200000004040109050001040900050806090006000400010704080004020300070403020800000001,000000000000000000000000000000000000000000000000000000000000000000000000000000000
590008003008000002000300010700060200000709000004030008060002000300000900100400085,000000000000000000000000000000000000000000000000000000000000000000000000000000000
006001008030040060500600700100700900080050040004002007005009001090020070600800300,000000000000000000000000000000000000000000000000000000000000000000000000000000000
000000000006509300040030070030408010005020900080906030070040080002105400000000000,000000000000000000000000000000000000000000000000000000000000000000000000000000000
003007006010020040700800900900400200080060070007009005001002004030010060500700100,000000000000000000000000000000000000000000000000000000000000000000000000000000000
004200008060070090800006400900007500030090040001300009002600003050020010100004900,000000000000000000000000000000000000000000000000000000000000000000000000000000000
904000607030020010000009000600000500090040030005000009000500000010080040309000102,000000000000000000000000000000000000000000000000000000000000000000000000000000000
002009007070040060600500800400200100090010030005003004006002001010090070900800500,000000000000000000000000000000000000000000000000000000000000000000000000000000000
020001050961050780000600030600000100050000070008000003080004000014090526030100040,000000000000000000000000000000000000000000000000000000000000000000000000000000000
040080090100907006002000100010508040500000003060403050009000700700806009080020030,000000000000000000000000000000000000000000000000000000000000000000000000000000000
600000001030504070008000200020906080000030000050201030004000800060709050900000003,000000000000000000000000000000000000000000000000000000000000000000000000000000000
500000006040205010006030200010070020004903500080050070009040100050107090400000007,000000000000000000000000000000000000000000000000000000000000000000000000000000000
090003000080040097004020500300000000067050820000000005008060400150070030000900010,000000000000000000000000000000000000000000000000000000000000000000000000000000000
030020040400096002006000500020000000950010027000000060008000100700130004010050070,000000000000000000000000000000000000000000000000000000000000000000000000000000000
000060000040209010009070500050703020103000708020508060004080600070102090000040000,000000000000000000000000000000000000000000000000000000000000000000000000000000000
008700005060020010900001300600005400050080030003100008006200007020050040700004100,000000000000000000000000000000000000000000000000000000000000000000000000000000000
600000009002901800070060050020609080001000700080402010050040030007108400200000008,000000000000000000000000000000000000000000000000000000000000000000000000000000000
600000008073000910028090560000609000007010300000502000035080640081000230900000005,000000000000000000000000000000000000000000000000000000000000000000000000000000000
030504090420000036000060000900000001003070600700000008000020000290000063070105040,000000000000000000000000000000000000000000000000000000000000000000000000000000000
002009004090060080600700500100300200030050060005006001008007006050020090700500100,000000000000000000000000000000000000000000000000000000000000000000000000000000000
001004009060030050300600100800300700070040080002009006005001007090050020200400900,000000000000000000000000000000000000000000000000000000000000000000000000000000000
080001000005060008003000120400107000090080060000604009068000700900030200000700040,000000000000000000000000000000000000000000000000000000000000000000000000000000000
002900005040080010800004700900007100010020060003100004004700008060050020300008600,000000000000000000000000000000000000000000000000000000000000000000000000000000000
005006001020030060600900500700200300090040010003001004007004006050070020900300800,000000000000000000000000000000000000000000000000000000000000000000000000000000000
060080020800702009002000100030010060500903004020040050007000800600408002080030040,000000000000000000000000000000000000000000000000000000000000000000000000000000000
000040000030601070009070100060705020501000907070409060002050300040802010000060000,000000000000000000000000000000000000000000000000000000000000000000000000000000000
006701400000000000905000608300080002000305000400020009209000307000000000003106200,000000000000000000000000000000000000000000000000000000000000000000000000000000000
100000007007508100030020040080309050005000700060205080020030090006801200900000008,000000000000000000000000000000000000000000000000000000000000000000000000000000000
008500007090060050400001800300009400020050010009200005003400006080020090500006300,000000000000000000000000000000000000000000000000000000000000000000000000000000000
509001803040030090000000000008000005070090020600000100000000000060040070805900204,000000000000000000000000000000000000000000000000000000000000000000000000000000000
040050010700809004006000300030090070600203008090060030003000100400905003020040050,000000000000000000000000000000000000000000000000000000000000000000000000000000000
000100007004070080030009100500008900060050020008300006002600030010090600400002000,000000000000000000000000000000000000000000000000000000000000000000000000000000000
007001008060080030900400600300800400020090070005002003002003007010040090600100300,000000000000000000000000000000000000000000000000000000000000000000000000000000000
008009005020040090400700200200800300010050070003004001001008004060090050500600700,000000000000000000000000000000000000000000000000000000000000000000000000000000000
001005002080060050500400100900100400020070010003009006007002003060040090300500600,000000000000000000000000000000000000000000000000000000000000000000000000000000000
002100006080090010300005700800003500010020080003600004009300007070060030400001900,000000000000000000000000000000000000000000000000000000000000000000000000000000000
100080002040901030003050100090000040502000703070000010007010800030805070800070009,000000000000000000000000000000000000000000000000000000000000000000000000000000000
400000002007904300080020040030060020002308100040010060050030070004107800800000005,000000000000000000000000000000000000000000000000000000000000000000000000000000000
270000058190020074004000100000502000040000060000308000009000700830090026720000091,000000000000000000000000000000000000000000000000000000000000000000000000000000000
300000002002904300080050010010209070009000100030501060020060030003408500500000004,000000000000000000000000000000000000000000000000000000000000000000000000000000000
500090006004306800010000070040000010200060007060000040050000080001708300600030005,000000000000000000000000000000000000000000000000000000000000000000000000000000000
900000007008706900010080020020090080004105300070060040030010060001509400700000008,000000000000000000000000000000000000000000000000000000000000000000000000000000000
090402030180000052000080000700000009009070200500000004000020000920000061060703020,000000000000000000000000000000000000000000000000000000000000000000000000000000000
401050702030400000809070304090600000308040601000000000107020406000000000906010803,000000000000000000000000000000000000000000000000000000000000000000000000000000000
009003004020090050400500900600700500040080030008004002003002005060010090800600400,000000000000000000000000000000000000000000000000000000000000000000000000000000000
005004006060070020900200400100500800080090050006008007007009008010050030200100500,000000000000000000000000000000000000000000000000000000000000000000000000000000000
000000000009406800010020070020508010001060500040703090030070040008605700000000000,000000000000000000000000000000000000000000000000000000000000000000000000000000000
001408200000000000602000907800020001000806000400050008906000504000000000003201600,000000000000000000000000000000000000000000000000000000000000000000000000000000000
000800000004020600020001030005030002090104070700080100070900050008060200000003000,000000000000000000000000000000000000000000000000000000000000000000000000000000000
407000809010080050000003000500000100030090080002000004000600000050020090704000605,000000000000000000000000000000000000000000000000000000000000000000000000000000000
601308705000000000200607009305000806000060000807000201100409008000000000704201903,000000000000000000000000000000000000000000000000000000000000000000000000000000000
007300004030060010400002600800005900020080060009600008008900001050010040200004300,000000000000000000000000000000000000000000000000000000000000000000000000000000000
920050014640000053005000900000601000300040002000705000002000400560000039890070026,000000000000000000000000000000000000000000000000000000000000000000000000000000000
300000009050901060006080500060109070008000400010208030009010600020706050600000002,000000000000000000000000000000000000000000000000000000000000000000000000000000000
070000010500409007006070300030502070001000400040701060007020100200604008090000030,000000000000000000000000000000000000000000000000000000000000000000000000000000000
005200006060030010700004500500002800080040070002100004009300005010050030800009100,000000000000000000000000000000000000000000000000000000000000000000000000000000000
300000001050307020009000500030906040000070000040203090008000900090501030100000007,000000000000000000000000000000000000000000000000000000000000000000000000000000000
000000000030040080601003709100000400020050090004000006906300108080020030000000000,000000000000000000000000000000000000000000000000000000000000000000000000000000000
600000007020805030008030200060903040003000700070506010002080300090304050300000001,000000000000000000000000000000000000000000000000000000000000000000000000000000000
409500708020080030000000000900000100030060090007000004000000000060050020302009406,000000000000000000000000000000000000000000000000000000000000000000000000000000000
002006001010050060700100900900200500080070020006001008008009004030010050400800300,000000000000000000000000000000000000000000000000000000000000000000000000000000000
300010004040308090009040300080000010604000208020000070001050700090607040400080006,000000000000000000000000000000000000000000000000000000000000000000000000000000000
500000003060304050008050200050701080006000300080506040005090100010403060800000007,000000000000000000000000000000000000000000000000000000000000000000000000000000000
090030080600007004000201000054000700700000002001000690000309000500800006020040010,000000000000000000000000000000000000000000000000000000000000000000000000000000000
030040070100809003007000600040705060900000008010906040008000100300408002090050080,000000000000000000000000000000000000000000000000000000000000000000000000000000000
000000000060020050504003208800000400010060030007000005201600804070030090000000000,000000000000000000000000000000000000000000000000000000000000000000000000000000000
960000000013908560080000030020401050000080000050603080090000070036504910000000023,000000000000000000000000000000000000000000000000000000000000000000000000000000000
407000905060040080203000406000507000050080020000304000506000709090050060108000302,000000000000000000000000000000000000000000000000000000000000000000000000000000000
009800007080090020300005800800007600050040010006200009008700005060030080400008100,000000000000000000000000000000000000000000000000000000000000000000000000000000000
001085200000000500520100007900060800400809003008050006800003052002000000004920600,000000000000000000000000000000000000000000000000000000000000000000000000000000000
090080010600370009003000600000000040510090073070000000007000200100054006030010090,000000000000000000000000000000000000000000000000000000000000000000000000000000000
750020046310000078004000500000609000100070005000802000001000800680000054570080031,000000000000000000000000000000000000000000000000000000000000000000000000000000000
080000090400095007003060100090000000065010870000000050007030200600280004040000060,000000000000000000000000000000000000000000000000000000000000000000000000000000000
009006008070080020800100500700800600090070030005004002001008003050030060600400100,000000000000000000000000000000000000000000000000000000000000000000000000000000000
508000307040050060000700000005000003060040080300000900000008000020060050709000206,000000000000000000000000000000000000000000000000000000000000000000000000000000000
002005006080060010500800900600200400040080070009001002006003004070090030900100700,000000000000000000000000000000000000000000000000000000000000000000000000000000000
640020013520000047007000200000503000400090001000406000004000100750000096230060078,000000000000000000000000000000000000000000000000000000000000000000000000000000000
050030040700206009009000800080701060100000002070504090006000300400802005010040080,000000000000000000000000000000000000000000000000000000000000000000000000000000000
906000204040070060000600000005000003020090080100000500000001000080020090203000105,000000000000000000000000000000000000000000000000000000000000000000000000000000000
005000600070809010300000009050406020000070000080205070600000004010607050004000800,000000000000000000000000000000000000000000000000000000000000000000000000000000000
030080070700209003005000200020090060300502001090010050008000400100807009050060080,000000000000000000000000000000000000000000000000000000000000000000000000000000000
200050008050402060007000200080301020900060001060908070003000500090706080100030007,000000000000000000000000000000000000000000000000000000000000000000000000000000000
400090002070000080000768000001000800802040705007000300000251000010000030600070009,000000000000000000000000000000000000000000000000000000000000000000000000000000000
100030004006402100030000080040000090700010003080000060090000010008306700300050006,000000000000000000000000000000000000000000000000000000000000000000000000000000000
004300005090070010600009700100006400050080070002700001006100008020090050500008300,000000000000000000000000000000000000000000000000000000000000000000000000000000000
605300702030070010000000000100000400070040080002000006000000000040080050209004603,000000000000000000000000000000000000000000000000000000000000000000000000000000000
040000080800302005007010600060000030005070100080000050001040500300609004020000090,000000000000000000000000000000000000000000000000000000000000000000000000000000000
300040009005601300080000060050000040900030006060000010020000080008507100500020004,000000000000000000000000000000000000000000000000000000000000000000000000000000000
008002005010080060400900800900700500040030070007004008004005007020010090100400600,000000000000000000000000000000000000000000000000000000000000000000000000000000000
001007004020060030400100500200900800060050020009002003007004005030080060900700300,000000000000000000000000000000000000000000000000000000000000000000000000000000000
300080004000205000009070800010000090403020105070000040006050700000906000200030008,000000000000000000000000000000000000000000000000000000000000000000000000000000000
800000400070024080504900006050700002090010040700009010100003804030470020005000007,000000000000000000000000000000000000000000000000000000000000000000000000000000000
001003002080020060200600700400200500020030070006007008007001003090040050600800400,000000000000000000000000000000000000000000000000000000000000000000000000000000000
002003007070010030900700400300900800060080050004006001003001004020030070600800900,000000000000000000000000000000000000000000000000000000000000000000000000000000000
600000002024000730097030540000501000002040600000208000076090250019000470200000009,000000000000000000000000000000000000000000000000000000000000000000000000000000000
800010009000802000003060400040000070306050201080000060004030500000601000200090006,000000000000000000000000000000000000000000000000000000000000000000000000000000000
000600000080010030604000509400000300090070080003000001506000704020030090000005000,000000000000000000000000000000000000000000000000000000000000000000000000000000000
008500002090060010300004700500001600030050020007800001009300005060080030200009400,000000000000000000000000000000000000000000000000000000000000000000000000000000000
004900003010080020500007800900003600030050040006400001008200004070010090400009300,000000000000000000000000000000000000000000000000000000000000000000000000000000000
005708100000000000608000402200090008000401000700060009401000306000000000006209800,000000000000000000000000000000000000000000000000000000000000000000000000000000000
008100002090070080300008600700003900040020050009500007003200005060010040900005800,000000000000000000000000000000000000000000000000000000000000000000000000000000000
060004000070060028005020900500000000092070630000000009006030800780090060000400010,000000000000000000000000000000000000000000000000000000000000000000000000000000000
007200009060010070400008300800002600010030020009700005001600008090040010700001400,000000000000000000000000000000000000000000000000000000000000000000000000000000000
010080050800107009009000300050030020200405003090010040007000500900806001040070080,000000000000000000000000000000000000000000000000000000000000000000000000000000000
260050019570000046001000500000105000400020008000308000007000900140000027320060051,000000000000000000000000000000000000000000000000000000000000000000000000000000000
008600009020070030700003100500008200080060050006400003001700008040050010200001400,000000000000000000000000000000000000000000000000000000000000000000000000000000000
002700003050020060800001900300008200070030050004100007008200009020050080900004100,000000000000000000000000000000000000000000000000000000000000000000000000000000000
000000000008704200030050060060308050004070100050906030020090040007501800000000000,000000000000000000000000000000000000000000000000000000000000000000000000000000000
300000007002701800040020010060209030005000200030807090010040050006502100500000009,000000000000000000000000000000000000000000000000000000000000000000000000000000000
905020801000010000200509006008000600470000019002000700800106002000030000509040108,000000000000000000000000000000000000000000000000000000000000000000000000000000000
005009003030070090400300200200500100060030020004008007008003009050010060100900500,000000000000000000000000000000000000000000000000000000000000000000000000000000000
800000006090301020005000700040902060000010000020607050004000500010204090200000007,000000000000000000000000000000000000000000000000000000000000000000000000000000000
900200800003005000050060001600100030005090200070002004300080050000900400007003002,000000000000000000000000000000000000000000000000000000000000000000000000000000000
006900001030070050700008200400002600070090020002400003001800007090020010600003500,000000000000000000000000000000000000000000000000000000000000000000000000000000000
002100003060090080900008100300006800050030070004500009001200005030010090700009400,000000000000000000000000000000000000000000000000000000000000000000000000000000000
900040001020108070006000800090302080100000005060509040003000700050703020600020008,000000000000000000000000000000000000000000000000000000000000000000000000000000000
607000405000020000400905008003000500090050020004000700700804002000010000902000106,000000000000000000000000000000000000000000000000000000000000000000000000000000000
001003004080010060300900200200800400070090030005002007007009003010080020500300900,000000000000000000000000000000000000000000000000000000000000000000000000000000000
400090008000106000009030100010000050503060901060000080006010700000602000800040009,000000000000000000000000000000000000000000000000000000000000000000000000000000000
008020300030908070200060001040000020701000604060000030300050007070603040005070900,000000000000000000000000000000000000000000000000000000000000000000000000000000000
401070308080300000306040201030800000608050407000000000809020104000000000703060905,000000000000000000000000000000000000000000000000000000000000000000000000000000000
080090050400806001003000800050070080100902007030040020004000200200705003090020070,000000000000000000000000000000000000000000000000000000000000000000000000000000000
007004008040010070900600500600300200080050040009001005005002006030080050400700100,000000000000000000000000000000000000000000000000000000000000000000000000000000000
005700004030090020800006900200007400040050030007800009001600008060070040300001600,000000000000000000000000000000000000000000000000000000000000000000000000000000000
002706400000000000701000203900080001000904000300070005607000309000000000004508600,000000000000000000000000000000000000000000000000000000000000000000000000000000000
600500009000080010005004000100900800030050020002006004000700300010020000400008006,000000000000000000000000000000000000000000000000000000000000000000000000000000000
000009000040070020809000403005000008020050070600000100501000806090080030000400000,000000000000000000000000000000000000000000000000000000000000000000000000000000000
207000506080030090000001000800000900040090060005000007000200000090010040701000805,000000000000000000000000000000000000000000000000000000000000000000000000000000000
002700004010040020400009500800004600070010090006800002005600009030070080200003400,000000000000000000000000000000000000000000000000000000000000000000000000000000000
300070005000806000009020300080000090905040603060000020004050700000703000500060008,000000000000000000000000000000000000000000000000000000000000000000000000000000000
800000009063000470094070850000605000008010300000208000087040510016000280400000007,000000000000000000000000000000000000000000000000000000000000000000000000000000000
100000007006207800040080060030040080007608400080050020010070050009503600500000003,000000000000000000000000000000000000000000000000000000000000000000000000000000000
000002800010703040800005000974000010000090000080000927000500003030204060006100000,000000000000000000000000000000000000000000000000000000000000000000000000000000000
009106700000000000503000908100020003000504000200080007806000501000000000004308600,000000000000000000000000000000000000000000000000000000000000000000000000000000000
900020007010706020006000400050801070300000008090604050009000200040902010200050004,000000000000000000000000000000000000000000000000000000000000000000000000000000000
008500002020040060100009800800004300090070050003200008004100006070050080300007500,000000000000000000000000000000000000000000000000000000000000000000000000000000000
570010032430000065006000100000702000600050003000906000003000500760000029190060074,000000000000000000000000000000000000000000000000000000000000000000000000000000000
005600004080040060700002100800003400050080020009200005003100006010020090400007500,000000000000000000000000000000000000000000000000000000000000000000000000000000000
009008006040090070700300400200900700080050030004002005008007002090040010300100600,000000000000000000000000000000000000000000000000000000000000000000000000000000000
090002000010070034003050700400000000082030640000000001005020400320080090000100020,000000000000000000000000000000000000000000000000000000000000000000000000000000000
001007005070080060900200300600500900020060010007002008002008006040020030300400500,000000000000000000000000000000000000000000000000000000000000000000000000000000000
100000002060507090008000400090402080000090000050306040003000200080604070700000008,000000000000000000000000000000000000000000000000000000000000000000000000000000000
800000005003080070027009800000002600090070010002100000001300240060040900900000007,000000000000000000000000000000000000000000000000000000000000000000000000000000000
300000004002306800090010030040060090009508200030070010050020080006907500900000006,000000000000000000000000000000000000000000000000000000000000000000000000000000000
000300000008090600060008020004010005020607030100020400070900050006070900000002000,000000000000000000000000000000000000000000000000000000000000000000000000000000000
310070049200080007005000100000803000580000062000706000002000500700060004450090016,000000000000000000000000000000000000000000000000000000000000000000000000000000000
500900003000010090007004000600100700010020040008005001000500600090040000200003008,000000000000000000000000000000000000000000000000000000000000000000000000000000000
400000100000340050085007030000006000600020784074500000500060002090084500008000001,000000000000000000000000000000000000000000000000000000000000000000000000000000000
004090300010050020600807009007000100380000047006000900900406003050080060001070800,000000000000000000000000000000000000000000000000000000000000000000000000000000000
804000302010020070000600000005000003090080010200000600000009000060070080503000106,000000000000000000000000000000000000000000000000000000000000000000000000000000000
009040030100700400050080007000000040801090602030000000600070090005001003090060200,000000000000000000000000000000000000000000000000000000000000000000000000000000000
009000600000205000205040308060401070004000100050602080106080509000509000003000800,000000000000000000000000000000000000000000000000000000000000000000000000000000000
704006501020080060000000000003000004070010030500000800000000000080020010206100405,000000000000000000000000000000000000000000000000000000000000000000000000000000000
005900002010050080400001900600007400030020050009500003006200004080060020200005300,000000000000000000000000000000000000000000000000000000000000000000000000000000000
600030008080405030003000700050020040700506003010080070002000300030807010100040009,000000000000000000000000000000000000000000000000000000000000000000000000000000000
400060005050701080003000400040090050700804006060030040002000100010906020500010007,000000000000000000000000000000000000000000000000000000000000000000000000000000000
001900006090070010300008700400003500010060020005200001008300007030020050500009100,000000000000000000000000000000000000000000000000000000000000000000000000000000000
500900008008070010061005000700004600050060020004500001000700280070010900400009003,000000000000000000000000000000000000000000000000000000000000000000000000000000000
400050006030901040009000100060208010800000002070103080007000800090604030100020009,000000000000000000000000000000000000000000000000000000000000000000000000000000000
000000000010040090204100307005000002090080050300000400108003206070060080000000000,000000000000000000000000000000000000000000000000000000000000000000000000000000000
005007009080090010700200600300700200010060050007008001003009006060020070100800300,000000000000000000000000000000000000000000000000000000000000000000000000000000000
300000070790302610050000000060507020000030000070601090000000040019406052020000009,000000000000000000000000000000000000000000000000000000000000000000000000000000000
008900002010080060400007800800004100050030020004200005009600001060050040100009300,000000000000000000000000000000000000000000000000000000000000000000000000000000000
003001009020070060100500400300200800080040030006003001008009005030020080600300700,000000000000000000000000000000000000000000000000000000000000000000000000000000000
010060070200008005000504000087000200900000004001000680000403000500700009040020060,000000000000000000000000000000000000000000000000000000000000000000000000000000000
007001004030040010900700500300500100050030080006009003008007001020060040600800200,000000000000000000000000000000000000000000000000000000000000000000000000000000000
210000075730010042004000800000506000050000060000204000003000700680070019140000083,000000000000000000000000000000000000000000000000000000000000000000000000000000000
050080090400607008006000200040050030300706004090010060004000600100902003080060010,000000000000000000000000000000000000000000000000000000000000000000000000000000000
050000010300702005002080300010000090004060200060000030007090600500801003020000070,000000000000000000000000000000000000000000000000000000000000000000000000000000000
008004006020060040100300900700100500090050070005007001009003002060080010500900800,000000000000000000000000000000000000000000000000000000000000000000000000000000000
300000006009620000005030180000000070023080590010000000098050200000014800100000003,000000000000000000000000000000000000000000000000000000000000000000000000000000000
090070030500106009006000200020305070400000008080407090001000900900801005060040020,000000000000000000000000000000000000000000000000000000000000000000000000000000000
307020105020500000805030902070100000601070208000000000502060809000000000904050703,000000000000000000000000000000000000000000000000000000000000000000000000000000000
001003006070060090200400100900100300080050010007002008004007009020090080600200400,000000000000000000000000000000000000000000000000000000000000000000000000000000000
000600000070010020901000304200000900080070040003000005309000802020040010000006000,000000000000000000000000000000000000000000000000000000000000000000000000000000000
001500003060040050900008100800004500050060080003800001004900006020010030100007900,000000000000000000000000000000000000000000000000000000000000000000000000000000000
600040008020000010000213000008050700405806102002090800000369000010000060500020009,000000000000000000000000000000000000000000000000000000000000000000000000000000000
008007006020090010600500700900300500060070030003004009005003008070020060200700900,000000000000000000000000000000000000000000000000000000000000000000000000000000000
060050030400001007000602000021000900500000006009000820000803000300700005070010060,000000000000000000000000000000000000000000000000000000000000000000000000000000000
704201305000000000300507002605000803000070000403000907200905001000000000509703604,000000000000000000000000000000000000000000000000000000000000000000000000000000000
200070001000805000007020900070000030904060702030000080003080200000104000700050006,000000000000000000000000000000000000000000000000000000000000000000000000000000000
800500900003004000010090006600100030007050200030008009500030020000600700008007003,000000000000000000000000000000000000000000000000000000000000000000000000000000000
006807100000000000902000605100090003000605000400070002509000804000000000008904700,000000000000000000000000000000000000000000000000000000000000000000000000000000000
920000068610080025003000900000803000060000010000405000006000100780090054530000092,000000000000000000000000000000000000000000000000000000000000000000000000000000000
007300004080050060300004800900003600070040030006200008004700005050020010600001700,000000000000000000000000000000000000000000000000000000000000000000000000000000000
006009005020050060400600100600200300010040070003006008004002003070080050900400700,000000000000000000000000000000000000000000000000000000000000000000000000000000000
002301500000000000608000203500030006000408000300050008107000405000000000003102700,000000000000000000000000000000000000000000000000000000000000000000000000000000000
006000100070806020300070005020304050004000200050208040900020008080705090005000600,000000000000000000000000000000000000000000000000000000000000000000000000000000000
005000200090802040600000003060109070000060000050304060500000007010608090002000100,000000000000000000000000000000000000000000000000000000000000000000000000000000000
001007004020040070700300900100200700090060050008005003003001008060050010500800200,000000000000000000000000000000000000000000000000000000000000000000000000000000000
006300005090070030400005800200007400010050090004200008003600002060010080900003100,000000000000000000000000000000000000000000000000000000000000000000000000000000000
008007004030060080400900300500700400040050030009006002006002009080040010200500600,000000000000000000000000000000000000000000000000000000000000000000000000000000000
002100009030040060100008700500006200010030070007800006001200007070090080300001900,000000000000000000000000000000000000000000000000000000000000000000000000000000000
150000000049206150030000070090503020000040000010602030020000080064905310000000069,000000000000000000000000000000000000000000000000000000000000000000000000000000000
504020109080600000601050807090400000806070302000000000105090708000000000309040205,000000000000000000000000000000000000000000000000000000000000000000000000000000000
005600001080040060700005400800009300070020050003800004009500003030060020200003900,000000000000000000000000000000000000000000000000000000000000000000000000000000000
000300006002090050010007800500001300030060080001400005008100040040020700100004000,000000000000000000000000000000000000000000000000000000000000000000000000000000000
002003005070060080600500300100300500060050070007002008001009006040020090900400100,000000000000000000000000000000000000000000000000000000000000000000000000000000000
003004009090060080100200300400600700070030010002008005009001004080040070300500600,000000000000000000000000000000000000000000000000000000000000000000000000000000000
100000300040050090300900700005000001070080040900000200008001003090060050004000006,000000000000000000000000000000000000000000000000000000000000000000000000000000000
007800005060040020100002700400007200090030070002400006004100003050090010900004500,000000000000000000000000000000000000000000000000000000000000000000000000000000000
001700002020050040400001300300007200060010050008900004009100006030090070700006400,000000000000000000000000000000000000000000000000000000000000000000000000000000000
001002005030010060600400700500100800020070050008009006009008003070030090300500200,000000000000000000000000000000000000000000000000000000000000000000000000000000000
001804700070000090300000005800201006000000000400603002200000004030000010004907500,000000000000000000000000000000000000000000000000000000000000000000000000000000000
008001004050020090400300500300800900080060050007002006003005009090040010700100600,000000000000000000000000000000000000000000000000000000000000000000000000000000000
003608100000000000704000609200040003000201000500060002108000507000000000007905800,000000000000000000000000000000000000000000000000000000000000000000000000000000000
008200001040010090600009500200007900050060030004900006009600003060080010800002700,000000000000000000000000000000000000000000000000000000000000000000000000000000000
001400009050070030300001200800009400020080010006300008004600002010030070600005900,000000000000000000000000000000000000000000000000000000000000000000000000000000000
800010003020090040009806500003000600980000034005000700004108300060070010100020009,000000000000000000000000000000000000000000000000000000000000000000000000000000000
004001007090040060500800900400600300080010070005007006001003004030020080200500100,000000000000000000000000000000000000000000000000000000000000000000000000000000000
000050000090307020006090300030506070608000503070208060001020400080601030000080000,000000000000000000000000000000000000000000000000000000000000000000000000000000000
900020001006000200020508060009000100800050009003000800030106050001000300400070008,000000000000000000000000000000000000000000000000000000000000000000000000000000000
070000080100503004003060100010020030009307400080050090005070800900406005060000040,000000000000000000000000000000000000000000000000000000000000000000000000000000000
900000004006209100070080090090402080001000400080105060030020050002807600700000002,000000000000000000000000000000000000000000000000000000000000000000000000000000000
004200006090050070500007100300009500040020080001400007002600009070030010100002800,000000000000000000000000000000000000000000000000000000000000000000000000000000000
010040050300802001009000300090507080500000002020301090006000400400206009080010060,000000000000000000000000000000000000000000000000000000000000000000000000000000000
040070010500901008009000500070020080600408001030090060003000100400309002050040030,000000000000000000000000000000000000000000000000000000000000000000000000000000000
300000001080407020006000400090703050000020000060105090005000300070508010400000006,000000000000000000000000000000000000000000000000000000000000000000000000000000000
001705800000000000403000207900040001000902000500080009604000703000000000007109600,000000000000000000000000000000000000000000000000000000000000000000000000000000000
009000070030500802106040000000050000000209000005070600000000400060005030704010508,000000000000000000000000000000000000000000000000000000000000000000000000000000000
007000400020603010300080002060207090008000700010508040800060004050102080009000600,000000000000000000000000000000000000000000000000000000000000000000000000000000000
705103204000000000600205009103000502000070000504000807800406001000000000307802605,000000000000000000000000000000000000000000000000000000000000000000000000000000000
600030004000107000009020100070000080201060405080000010002050300000902000800070006,000000000000000000000000000000000000000000000000000000000000000000000000000000000
030060090200803007005000100020070060400205008010080020009000200100408006050030070,000000000000000000000000000000000000000000000000000000000000000000000000000000000
900040003007802900040000070060304050500000006070506010050000090002608100600010008,000000000000000000000000000000000000000000000000000000000000000000000000000000000
200000001009208700050030040030805010006000500010904060090080020004602900500000008,000000000000000000000000000000000000000000000000000000000000000000000000000000000
700000004060407030005010700030070040006301800050060090008020400090604020600000003,000000000000000000000000000000000000000000000000000000000000000000000000000000000
009002001060070040500900800300600200020050010005001007007009003030080090900500600,000000000000000000000000000000000000000000000000000000000000000000000000000000000
010309200000000003309070800200060008006408700500090004005030109100000000004701080,000000000000000000000000000000000000000000000000000000000000000000000000000000000
050409600000000001704030200400506002003000500100304007007010408900000000008703020,000000000000000000000000000000000000000000000000000000000000000000000000000000000
000100000030080070905000408700000600010020090004000007806000704090030050000006000,000000000000000000000000000000000000000000000000000000000000000000000000000000000
400060001005203400010000050030040090600507003040030080070000010001602700300070009,000000000000000000000000000000000000000000000000000000000000000000000000000000000
090010050100906007002000800020060080500807006080050030004000300800604001010090060,000000000000000000000000000000000000000000000000000000000000000000000000000000000
004002001080030070100600900400200600020080090008003007002007009040090030300500100,000000000000000000000000000000000000000000000000000000000000000000000000000000000
300060005010502030002000600090806020600050007070903050001000900030701060800040003,000000000000000000000000000000000000000000000000000000000000000000000000000000000
600000005053000840074030960000803000001070600000204000016080490097000310400000006,000000000000000000000000000000000000000000000000000000000000000000000000000000000
100000004060709020005030800090206040008000600050901030006020400010304080400000007,000000000000000000000000000000000000000000000000000000000000000000000000000000000
020080040400605003003000700030020090700809006060010080006000800300204005090060070,000000000000000000000000000000000000000000000000000000000000000000000000000000000
050090600002007005100050040060000000507040902000000030080030001200400800006020070,000000000000000000000000000000000000000000000000000000000000000000000000000000000
600000002045000160028090470000305000002040800000109000061050730034000510500000004,000000000000000000000000000000000000000000000000000000000000000000000000000000000
002700003060050040900008500100003400050070010009100008001300006020040080800002900,000000000000000000000000000000000000000000000000000000000000000000000000000000000
000000000080401090204050306060205030509000601030109040401070200020604080000000000,000000000000000000000000000000000000000000000000000000000000000000000000000000000
070060010400807006005000700020701050800000003050603040007000200300408007090070030,000000000000000000000000000000000000000000000000000000000000000000000000000000000
000000000080010020704005309400000900070080040003000005605800103020040070000000000,000000000000000000000000000000000000000000000000000000000000000000000000000000000
005004007090070040800300900400800200080020070009006005006005008040030090100200600,000000000000000000000000000000000000000000000000000000000000000000000000000000000
710080006005009008000007090070800040500000001030004020090300000400600700300050089,000000000000000000000000000000000000000000000000000000000000000000000000000000000
009003007080060050600400900400200700010080090008006003004001002030050010900700500,000000000000000000000000000000000000000000000000000000000000000000000000000000000
005600008030010060700005900400003800070020090008400002007200006010080030600001500,000000000000000000000000000000000000000000000000000000000000000000000000000000000
200080007000104000004030100090000040801020903030000060007090600000605000500010002,000000000000000000000000000000000000000000000000000000000000000000000000000000000
006007009040060020900500300600300100010090050009001007002009001070040080400200500,000000000000000000000000000000000000000000000000000000000000000000000000000000000
002060100080304020900080003090000010801000904040000050500010007010603080009070200,000000000000000000000000000000000000000000000000000000000000000000000000000000000
030090080600107005009000400020030060900206004050040020004000800300805001010060050,000000000000000000000000000000000000000000000000000000000000000000000000000000000
800000003010803060009000200090304080000010000040506070005000700080405030100000009,000000000000000000000000000000000000000000000000000000000000000000000000000000000
500000009001503200040090010070020030003908700010050060080040090002809100900000006,000000000000000000000000000000000000000000000000000000000000000000000000000000000
003005006070080040400900800600100900030090070005008004002007009050030020900800400,000000000000000000000000000000000000000000000000000000000000000000000000000000000
001005004060080070900100200100900300090060080002007009006008007010040030400600500,000000000000000000000000000000000000000000000000000000000000000000000000000000000
709060201020400000308090504070500000906010407000000000201070806000000000807050109,000000000000000000000000000000000000000000000000000000000000000000000000000000000
090040020400003001000806000043000100100000007008000360000208000900300005010090040,000000000000000000000000000000000000000000000000000000000000000000000000000000000
030070090400830006001000200000000070320090084010000000006000900100029005080060030,000000000000000000000000000000000000000000000000000000000000000000000000000000000
200070008006000200050102090005000100300020004004000300060207050001000900400030006,000000000000000000000000000000000000000000000000000000000000000000000000000000000
010030700003008001600040050020000000705080902000000040030070006500900300001050080,000000000000000000000000000000000000000000000000000000000000000000000000000000000
209806105000000000400109003106000408000060000905000702600903001000000000704508906,000000000000000000000000000000000000000000000000000000000000000000000000000000000
000000000002308400090010080050207090003090600040506010020050040006903800000000000,000000000000000000000000000000000000000000000000000000000000000000000000000000000
300010007005302100010000090040020030500106008030080060070000010002403900400060003,000000000000000000000000000000000000000000000000000000000000000000000000000000000
600000001003402900040010020060070010005609200030020050070030040004705100500000008,000000000000000000000000000000000000000000000000000000000000000000000000000000000
200104008030090020000508000090000060806040203050000090000203000080050030300401007,000000000000000000000000000000000000000000000000000000000000000000000000000000000
002000700060802090800050002050109070004000800070506010400070001080405020003000900,000000000000000000000000000000000000000000000000000000000000000000000000000000000
002003009070080050900700100200800500060090020004002006003009004050010070400200900,000000000000000000000000000000000000000000000000000000000000000000000000000000000
900030005000201000007080600010000020208090401050000070001060900000407000800020004,000000000000000000000000000000000000000000000000000000000000000000000000000000000
200060001000905000009070600070000080905040703010000020003050100000209000800010007,000000000000000000000000000000000000000000000000000000000000000000000000000000000
070090030500706008008000700050010040100508003060020050004000500300904006020070080,000000000000000000000000000000000000000000000000000000000000000000000000000000000
000010000084000320020508090007000500600030009002000600070301040065000970000090000,000000000000000000000000000000000000000000000000000000000000000000000000000000000
040000030100302008007050200060030080005706100070090040004010900700504006010000050,000000000000000000000000000000000000000000000000000000000000000000000000000000000
001030200090010060400802009005000300830000041002000800100305007070060050009080400,000000000000000000000000000000000000000000000000000000000000000000000000000000000
020010070300206009009000300040090010900701004080020050006000800400102006070060020,000000000000000000000000000000000000000000000000000000000000000000000000000000000
100020009000907000008040300080000050409080102010000040004090200000508000600010007,000000000000000000000000000000000000000000000000000000000000000000000000000000000
020708100000000002103040800600050003002604500900020004009060705300000000008501040,000000000000000000000000000000000000000000000000000000000000000000000000000000000
100000004094000820027080310000907000009050700000102000061040980043000260900000001,000000000000000000000000000000000000000000000000000000000000000000000000000000000
001507600000000000402000803100060009000905000600020004803000706000000000007309200,000000000000000000000000000000000000000000000000000000000000000000000000000000000
007005008010080050200600700300900400070020060009001003001002007020050080700100300,000000000000000000000000000000000000000000000000000000000000000000000000000000000
040050100005007009300060080030000000906040208000000040010070004700600500008020010,000000000000000000000000000000000000000000000000000000000000000000000000000000000
009000600080605020700030001030902010005000200020401080600040007070503090008000400,000000000000000000000000000000000000000000000000000000000000000000000000000000000
002009008080060090400800100100700800060080010009005003006008002030020050700500900,000000000000000000000000000000000000000000000000000000000000000000000000000000000
807306104000000000500407009901000706000010000408000501600502008000000000104703905,000000000000000000000000000000000000000000000000000000000000000000000000000000000
500000002090301060008000500080105040000090000030402090006000300040708010100000006,000000000000000000000000000000000000000000000000000000000000000000000000000000000
008709300000000000704000908400020006000903000600010002907000501000000000002801400,000000000000000000000000000000000000000000000000000000000000000000000000000000000
002007003030010020100400600900700300010060040008002005009008006050070080800500400,000000000000000000000000000000000000000000000000000000000000000000000000000000000
070090060600502004003000200030109020700000006060705030009000100800301007010050080,000000000000000000000000000000000000000000000000000000000000000000000000000000000
900040006000607000008090100010000040806070309050000070001080700000506000500010002,000000000000000000000000000000000000000000000000000000000000000000000000000000000
200600007030050060406030200700001000048070520000500008001020706060010050500004009,000000000000000000000000000000000000000000000000000000000000000000000000000000000
700060002000905000006010400040000090501040607070000050004020900000108000800030001,000000000000000000000000000000000000000000000000000000000000000000000000000000000
600090002000704000007050300080000040502070901030000020008020600000308000400010009,000000000000000000000000000000000000000000000000000000000000000000000000000000000
100000003008102500060030080070403090006000800090605070010040050007801200900000004,000000000000000000000000000000000000000000000000000000000000000000000000000000000
708090402000030000500407006009000300410000059005000600600504003000080000307060504,000000000000000000000000000000000000000000000000000000000000000000000000000000000
002000500030205090700030001060309050004000800070602010800010005090403080007000600,000000000000000000000000000000000000000000000000000000000000000000000000000000000
005007004060030050300100800500300200090070040001002009006005008050040010900200600,000000000000000000000000000000000000000000000000000000000000000000000000000000000
005004009080060070300100200900800600030070020008009001002003007090010080500600400,000000000000000000000000000000000000000000000000000000000000000000000000000000000
500000002060408010007000900010504020000080000020907080003000600050602070700000004,000000000000000000000000000000000000000000000000000000000000000000000000000000000
081050700034000081600000054000601000100070003000208000450000007720000310003020490,000000000000000000000000000000000000000000000000000000000000000000000000000000000
007800004020010060900002100300005700080040050006300001005700006090050010200003400,000000000000000000000000000000000000000000000000000000000000000000000000000000000
900000006005709800020030090040601070007000400050402060090010030003504900200000005,000000000000000000000000000000000000000000000000000000000000000000000000000000000
006005001070040090100200300200300100060020050009007002007004009030010060400700800,000000000000000000000000000000000000000000000000000000000000000000000000000000000
600000008007208500080010020010070030006309400070040090020050080001407300700000009,000000000000000000000000000000000000000000000000000000000000000000000000000000000
200090005010306090004000600020708060700000002030502040002000400080903010100080007,000000000000000000000000000000000000000000000000000000000000000000000000000000000
700080001000102000005060800010000020609020507050000030004090600000403000300070005,000000000000000000000000000000000000000000000000000000000000000000000000000000000
200600800050090060100000200800000900030010070009000002007000001040050090001004008,000000000000000000000000000000000000000000000000000000000000000000000000000000000
100603007080010030000904000050000060704060309030000080000106000020030040600809001,000000000000000000000000000000000000000000000000000000000000000000000000000000000
007000400060203070100000008090305080000060000050109040600000001030901020004000300,000000000000000000000000000000000000000000000000000000000000000000000000000000000
007002008030070020800500900400300200060050040009006001008005009010040070600700100,000000000000000000000000000000000000000000000000000000000000000000000000000000000
800000009040609080003010500060302050002000600070506040009040200030705010700000005,000000000000000000000000000000000000000000000000000000000000000000000000000000000
200000003006904700080010060070060090001209300090030040060040070004605100900000004,000000000000000000000000000000000000000000000000000000000000000000000000000000000
001007008040020010700100500900200100050080060006009004008002003030090050100400200,000000000000000000000000000000000000000000000000000000000000000000000000000000000
008004001060050070900800500300700200020040080007003004006007009030080010500400700,000000000000000000000000000000000000000000000000000000000000000000000000000000000
900100006001050030032007000800001400040080090007400008000200960010060500300008002,000000000000000000000000000000000000000000000000000000000000000000000000000000000
500040008003905700020000010030000070700090004040000080010000050005603100600020007,000000000000000000000000000000000000000000000000000000000000000000000000000000000
300080009070205040004060200010000050703000102060000030008030700030406010100050003,000000000000000000000000000000000000000000000000000000000000000000000000000000000
009002006030040070700300800300700600080050020007006009004005003010030050500400900,000000000000000000000000000000000000000000000000000000000000000000000000000000000
000000000001203500060090080090701060004020700050306090040050010005402800000000000,000000000000000000000000000000000000000000000000000000000000000000000000000000000
009005001070080030200900500800600200020030060004001007007006008050070040900400700,000000000000000000000000000000000000000000000000000000000000000000000000000000000
000500000005060400020008030009070002030601070600040300080100090006050700000002000,000000000000000000000000000000000000000000000000000000000000000000000000000000000
002100003030060020700005800400001300090050010003900006009400007080070040200006500,000000000000000000000000000000000000000000000000000000000000000000000000000000000
400000002008904300090010050060080020002603900040020060080040010005708200600000007,000000000000000000000000000000000000000000000000000000000000000000000000000000000
001005008080010090900300400600500700050070030004002006008009003010040070200800600,000000000000000000000000000000000000000000000000000000000000000000000000000000000
004600009060070020800001400500009700030020050001500008002400003090080070300006500,000000000000000000000000000000000000000000000000000000000000000000000000000000000
004600003080070050600001800100004600020010070009200004002500001010080040900003700,000000000000000000000000000000000000000000000000000000000000000000000000000000000
600070004001204700050000030040030020900107003010090070030000040005908300800050007,000000000000000000000000000000000000000000000000000000000000000000000000000000000
800020004040807060001000800050104080400000001030206040006000400070308010200050009,000000000000000000000000000000000000000000000000000000000000000000000000000000000
070020080200306001001000300010030090600207003050010060004000900700401008020060010,000000000000000000000000000000000000000000000000000000000000000000000000000000000
705900104030040020000000000100000500060080030002000007000000000080090040501006908,000000000000000000000000000000000000000000000000000000000000000000000000000000000
080004000020060078006070200900000000063010420000000006009030700150020040000700010,000000000000000000000000000000000000000000000000000000000000000000000000000000000
100000009009406800040020050090608020008000900060502080080030070007104300900000008,000000000000000000000000000000000000000000000000000000000000000000000000000000000
003005004040060020900800100400200500070010060005008002006009003090070050300100900,000000000000000000000000000000000000000000000000000000000000000000000000000000000
900000008040608010005000400030106090000030000010209060007000800050402030100000006,000000000000000000000000000000000000000000000000000000000000000000000000000000000
900000008007809300040010090010604020003000500060302070070030060005701400100000002,000000000000000000000000000000000000000000000000000000000000000000000000000000000
009500004060070020700006100600007400090040010008100005003900008040050090900004200,000000000000000000000000000000000000000000000000000000000000000000000000000000000
002500006010070050300009100200003400030040090008200007005800003080060070100007600,000000000000000000000000000000000000000000000000000000000000000000000000000000000
400010009010605030008000600070206040600000005080703060001000200040902010900070004,000000000000000000000000000000000000000000000000000000000000000000000000000000000
000300000002080900010009080001090004070805090800010300060700050004030100000006000,000000000000000000000000000000000000000000000000000000000000000000000000000000000
500090007070108090006000800060702030100000006040306010008000200030201080600080004,000000000000000000000000000000000000000000000000000000000000000000000000000000000
004900007060010040807040100300005000015020370000600005003060509080090060900002700,000000000000000000000000000000000000000000000000000000000000000000000000000000000
000000000002705300070080010050602070006070900040901030030020040009406800000000000,000000000000000000000000000000000000000000000000000000000000000000000000000000000
900500006001020030047006000400005100090030020008100005000400780080010400700002003,000000000000000000000000000000000000000000000000000000000000000000000000000000000
007209300040000060300000008700604005000000000900703006600000007010000020003102900,000000000000000000000000000000000000000000000000000000000000000000000000000000000
008700003030060010100005900200004600080050040007600002004200005060090070900007800,000000000000000000000000000000000000000000000000000000000000000000000000000000000
000008000010070090807000405001000008090010030400000900209000504060030070000900000,000000000000000000000000000000000000000000000000000000000000000000000000000000000
005002003090050070800900200400600300020010060009008002007005004010030080300400900,000000000000000000000000000000000000000000000000000000000000000000000000000000000
500030008080902050003000400060503040200000003090206080008000700030801060400090001,000000000000000000000000000000000000000000000000000000000000000000000000000000000
070040080800309007002000900010020060200701009050080020006000400300506002020090050,000000000000000000000000000000000000000000000000000000000000000000000000000000000
730090002000400305040000000000050010900307004060020000000000080306008000400030097,000000000000000000000000000000000000000000000000000000000000000000000000000000000
540001008003000005000600010700090200000305000006020004010007000400000900200800076,000000000000000000000000000000000000000000000000000000000000000000000000000000000
001300002070010060900005400200004800040080090009200003004500009080090070300007100,000000000000000000000000000000000000000000000000000000000000000000000000000000000
008060200010905030700030009050000060603000807080000090800020003030108040004050900,000000000000000000000000000000000000000000000000000000000000000000000000000000000
600702009020080010005000700500603004040070060200908001009000400080060030400307006,000000000000000000000000000000000000000000000000000000000000000000000000000000000
002001006030050070600700100500400600090060080007002004008009007070080040900300500,000000000000000000000000000000000000000000000000000000000000000000000000000000000
005000040200405600070090008020000060001050200090000030400010070007306004050000300,000000000000000000000000000000000000000000000000000000000000000000000000000000000
500000008007020090028006100000009500010040060004600000002300850030070600700000003,000000000000000000000000000000000000000000000000000000000000000000000000000000000
008007004010060030600300500200500400080010090009004001007008003040020050800700600,000000000000000000000000000000000000000000000000000000000000000000000000000000000
003002009040070030700100200600400300030060010008005007004008003020090040100700600,000000000000000000000000000000000000000000000000000000000000000000000000000000000
006500004020080030900002500200008100080030060001700005004200001070090020600003900,000000000000000000000000000000000000000000000000000000000000000000000000000000000
008401300000000000309000407600080005000503000200090004901000702000000000003806100,000000000000000000000000000000000000000000000000000000000000000000000000000000000
007005006060090070800400200900100300070080090005009001006008002040020030300500100,000000000000000000000000000000000000000000000000000000000000000000000000000000000
003004006010070050800300700500400600040030010009005004002003009070020040900500200,000000000000000000000000000000000000000000000000000000000000000000000000000000000
004000070800706300010020009070000030006090500040000020700040060005809003030000200,000000000000000000000000000000000000000000000000000000000000000000000000000000000
007030400010070090400806007009000700120000086006000100200308005070060040005020900,000000000000000000000000000000000000000000000000000000000000000000000000000000000
030000070580701024000080000070402080000010000020807090000070000490608053050000040,000000000000000000000000000000000000000000000000000000000000000000000000000000000
700000009020906010008010500080401030003000600070302040005030700030507090800000003,000000000000000000000000000000000000000000000000000000000000000000000000000000000
400700005000050020003008000100200700060030050007009002000100400080060000700004009,000000000000000000000000000000000000000000000000000000000000000000000000000000000
008003009060020080700800300800500100090040030005009006007005002010070060400100700,000000000000000000000000000000000000000000000000000000000000000000000000000000000
000100004003020050080005600400003500030040080005900007008600070090030100600001000,000000000000000000000000000000000000000000000000000000000000000000000000000000000
200030005030070020008102300004000100810000062009000800001908700080010040700050001,000000000000000000000000000000000000000000000000000000000000000000000000000000000
710090002000003604080000000070040000400201009000070050000000020109300000500010048,000000000000000000000000000000000000000000000000000000000000000000000000000000000
004006002010080030800500400300800600050090070001003004005007003020030090900600200,000000000000000000000000000000000000000000000000000000000000000000000000000000000
400030005060904010002000900070102080600000007080409060004000700020308050300040008,000000000000000000000000000000000000000000000000000000000000000000000000000000000
080050090600203007001000300010070080900408003070030040009000500500906002060040070,000000000000000000000000000000000000000000000000000000000000000000000000000000000
000000000042600870050800010000040120000103000073060000090002060026007480000000000,000000000000000000000000000000000000000000000000000000000000000000000000000000000
006040900040001030900500007080000200600030008002000060700006001050200090001050400,000000000000000000000000000000000000000000000000000000000000000000000000000000000
002001003090040020500700400800500200060010040005003006006005008010030050200100700,000000000000000000000000000000000000000000000000000000000000000000000000000000000
006007002010050040900400100700600500020040030004002009008003007060010080300900200,000000000000000000000000000000000000000000000000000000000000000000000000000000000
070000090540302071000040000020509030000020000080407020000070000290106043030000050,000000000000000000000000000000000000000000000000000000000000000000000000000000000
700000004001503200020070050080090030009205800010060090090040010006801900100000003,000000000000000000000000000000000000000000000000000000000000000000000000000000000
500000006006205100090040020050108090001000700080504030070030050009702400200000007,000000000000000000000000000000000000000000000000000000000000000000000000000000000
005006002080090050300100600400900200020050030006008007003007008040060020100300400,000000000000000000000000000000000000000000000000000000000000000000000000000000000
006070010100360800020000005000000050840050037090000000600000020002084009050010700,000000000000000000000000000000000000000000000000000000000000000000000000000000000
500070008000109000003060100090000060807050304040000020001080200000306000400020007,000000000000000000000000000000000000000000000000000000000000000000000000000000000
900407006080060020002000900700503002020070090400209007003000600050090030200306001,000000000000000000000000000000000000000000000000000000000000000000000000000000000
700080004003260100010000080000000090620050048080000000050000030001023900900040001,000000000000000000000000000000000000000000000000000000000000000000000000000000000
800040005000601000007020900090000070204030809080000010003060400000407000600010002,000000000000000000000000000000000000000000000000000000000000000000000000000000000
010060030500703001009000800020090010700502008050080020005000400100406009090030060,000000000000000000000000000000000000000000000000000000000000000000000000000000000
901030804020600000305090601040500000209010308000000000408060109000000000102050706,000000000000000000000000000000000000000000000000000000000000000000000000000000000
070090020100002004000305000094000800600000003001000740000903000500400002020080010,000000000000000000000000000000000000000000000000000000000000000000000000000000000
400000009069000470027080160000301000003060700000405000096010240018000390200000001,000000000000000000000000000000000000000000000000000000000000000000000000000000000
100800300004007000090040006800200040009050600030004008200090080000100400005006007,000000000000000000000000000000000000000000000000000000000000000000000000000000000
004000300050309070100000004010502080000080000030407060500000009080701050009000600,000000000000000000000000000000000000000000000000000000000000000000000000000000000
008400005010060030700008400600002700050030010007500009001600003090050080500009200,000000000000000000000000000000000000000000000000000000000000000000000000000000000
700030009050070040000601000006020900240503071003010800000907000020040090800060007,000000000000000000000000000000000000000000000000000000000000000000000000000000000
002700001070060080100008500400009300030040020007600008005900004020050010700004800,000000000000000000000000000000000000000000000000000000000000000000000000000000000
040060090600708005005000700070102080300000001060905030006000300700603002020090010,000000000000000000000000000000000000000000000000000000000000000000000000000000000
070000020500904003006020400080000070002010800090000050003040100900708006040000030,000000000000000000000000000000000000000000000000000000000000000000000000000000000
002007004030090020600100800400300900050080040003006001004002005020010090700600200,000000000000000000000000000000000000000000000000000000000000000000000000000000000
200000009084000610010508070003901400000070000008206100050602080042000760100000002,000000000000000000000000000000000000000000000000000000000000000000000000000000000
001006003040070090900200700400800100050010060006003009002005007090080020100300800,000000000000000000000000000000000000000000000000000000000000000000000000000000000
004300006090060030300009500700001600020040080009500007002100005060020040800004100,000000000000000000000000000000000000000000000000000000000000000000000000000000000
900000001060703080008020600030905010005000400020407030006070200080501090400000008,000000000000000000000000000000000000000000000000000000000000000000000000000000000
000400000004080700060003080007020003040506010800070900080600030005090200000007000,000000000000000000000000000000000000000000000000000000000000000000000000000000000
050060700001004008900050030040000000106020307000000010070040001300800900005070020,000000000000000000000000000000000000000000000000000000000000000000000000000000000
006040200080002090500300006060000500800010007005000010600001008070600040002090600,000000000000000000000000000000000000000000000000000000000000000000000000000000000
004501600000000000807000903600020004000709000300050009403000807000000000002108500,000000000000000000000000000000000000000000000000000000000000000000000000000000000
500090007000507000003020100040000060302070408010000020007040600000206000800050009,000000000000000000000000000000000000000000000000000000000000000000000000000000000
000000000030070050902003401700000100050080020004000005601900504020060030000000000,000000000000000000000000000000000000000000000000000000000000000000000000000000000
001002003080050070900700100100200700050070030007009004004005007020080040800300200,000000000000000000000000000000000000000000000000000000000000000000000000000000000
600000009008060030071002400000004600040020070005800000009500210020040500100000008,000000000000000000000000000000000000000000000000000000000000000000000000000000000
080700300020061045100000000030906002090000050800407090000000009450380010009005030,000000000000000000000000000000000000000000000000000000000000000000000000000000000
900060001008401900050000060070602010600000008020305090080000070006804200300010006,000000000000000000000000000000000000000000000000000000000000000000000000000000000
108030407000010000900705003001000900760000038002000600800509001000070000405080709,000000000000000000000000000000000000000000000000000000000000000000000000000000000
030000090520309076008000200070030080000605000010040020009000300460103059080000010,000000000000000000000000000000000000000000000000000000000000000000000000000000000
001500002020080030600003700500007800010090040009200006008300005070050010400006300,000000000000000000000000000000000000000000000000000000000000000000000000000000000
002000500090406030600000008040908060000030000030102050500000009060204010008000700,000000000000000000000000000000000000000000000000000000000000000000000000000000000
001400006030020090600003700800005900060070030004800005008700009070080010200009500,000000000000000000000000000000000000000000000000000000000000000000000000000000000
008900001070020050900007400800004100030050040004800003005200009080030020600008300,000000000000000000000000000000000000000000000000000000000000000000000000000000000
600904005030020060000608000020000050706010904010000080000407000060050090500109008,000000000000000000000000000000000000000000000000000000000000000000000000000000000
705000302060050070901000405000306000030090010000205000806000204050070030304000107,000000000000000000000000000000000000000000000000000000000000000000000000000000000
008900005090010070002000003500000300070030060006000001800000400060020090100005800,000000000000000000000000000000000000000000000000000000000000000000000000000000000
002004009010090020900100800200700500090030070005008006004003005050020090100800600,000000000000000000000000000000000000000000000000000000000000000000000000000000000
200500300007002000090080006400300080008040100050009002500020040000600800001005007,000000000000000000000000000000000000000000000000000000000000000000000000000000000
005004007090030060700500900400600300080070050001005004006001002020090080100200700,000000000000000000000000000000000000000000000000000000000000000000000000000000000
700040003000902000005060200030000040804050302070000010002030400000709000900020005,000000000000000000000000000000000000000000000000000000000000000000000000000000000
003004005090080010800900200100500700050090080004001009006003008010070040300200500,000000000000000000000000000000000000000000000000000000000000000000000000000000000
007100005090080070600009100200008700070030080004700001006900004030050010100003900,000000000000000000000000000000000000000000000000000000000000000000000000000000000
001700003080010020300006100100009600050070040003100005006900002090050010700004800,000000000000000000000000000000000000000000000000000000000000000000000000000000000
009060700030705060200080001070000080604000109010000020800010004040608070003020800,000000000000000000000000000000000000000000000000000000000000000000000000000000000
005002009080070050700500300200900100070030020008006005001009006090080040500200800,000000000000000000000000000000000000000000000000000000000000000000000000000000000
003500002020060080600009100100004700040020010007800003001600004030050060200007500,000000000000000000000000000000000000000000000000000000000000000000000000000000000
070050010600004002009070300020000000504030607000000030002060500100200009080040070,000000000000000000000000000000000000000000000000000000000000000000000000000000000
004003007010080020200600300400800700080070030006001009003009001020040090600500400,000000000000000000000000000000000000000000000000000000000000000000000000000000000
001400007070030010400005900800003400020010060003200005005900006080020030700001800,000000000000000000000000000000000000000000000000000000000000000000000000000000000
000007000090050070301000209009000004080070020100000300503000601020010040000800000,000000000000000000000000000000000000000000000000000000000000000000000000000000000
030008000075906048000000050080704060000020000050609070040000000960405710000100080,000000000000000000000000000000000000000000000000000000000000000000000000000000000
003700009090020010400009300200008500050090080001500007004600003010080050900004700,000000000000000000000000000000000000000000000000000000000000000000000000000000000
300800402004009000050020003800200040007000900020008006400060070000900100506002009,000000000000000000000000000000000000000000000000000000000000000000000000000000000
060001000040080052007060400900000000034070810000000005005010300820030070000900020,000000000000000000000000000000000000000000000000000000000000000000000000000000000
600000001020905070005030900040302010003000600050609030008050100090407080400000005,000000000000000000000000000000000000000000000000000000000000000000000000000000000
590080063420000089003000500000507000100020006000108000005000900360000052240090031,000000000000000000000000000000000000000000000000000000000000000000000000000000000
050070600003900007900050030000000020509080103010000000070010006300008700008060090,000000000000000000000000000000000000000000000000000000000000000000000000000000000
203501409000000000100807003609000804000050000801000905700405002000000000402103506,000000000000000000000000000000000000000000000000000000000000000000000000000000000
001700006090030040500001300100004500060080070008500003003400008020090060600002700,000000000000000000000000000000000000000000000000000000000000000000000000000000000
001800002060010080400003900900006400030070010006900007002700008010090040500001200,000000000000000000000000000000000000000000000000000000000000000000000000000000000
207000301030050040000300000001000008090060030400000900000006000060080090103000702,000000000000000000000000000000000000000000000000000000000000000000000000000000000
800000001005609400060080050080103070009000100020908060050070090008405700200000005,000000000000000000000000000000000000000000000000000000000000000000000000000000000
009500002010070080400009700500004900090020030002900004001300005030050070600001800,000000000000000000000000000000000000000000000000000000000000000000000000000000000
007003001020070080600400700900800500070010040004007002002009004010060030800700900,000000000000000000000000000000000000000000000000000000000000000000000000000000000
000658000030000070001020900300000004902010506100000009005070200010000040000286000,000000000000000000000000000000000000000000000000000000000000000000000000000000000
008300005090040030600005400400009100010060020003400008007500009060080010900007800,000000000000000000000000000000000000000000000000000000000000000000000000000000000
008000200050903010400000003020504090000010000010807040200000009080201060003000700,000000000000000000000000000000000000000000000000000000000000000000000000000000000
500000009007409100020030080010020090005608400080070060070060010008307900600000003,000000000000000000000000000000000000000000000000000000000000000000000000000000000
001700002030040070900002300100008400050020010002900006009400008010080030700005600,000000000000000000000000000000000000000000000000000000000000000000000000000000000
800060001060070080005408600009000700240000069008000200002107800080090040300080005,000000000000000000000000000000000000000000000000000000000000000000000000000000000
800090006002000700060407090008000200200060008003000400020103050005000100700050004,000000000000000000000000000000000000000000000000000000000000000000000000000000000
800706004020040090000208000070000010301060507090000030000605000060030070100407005,000000000000000000000000000000000000000000000000000000000000000000000000000000000
000000000002503100040080070020908010005010300070206090090040080007105600000000000,000000000000000000000000000000000000000000000000000000000000000000000000000000000
900000008001507600040080010090020040003105800020070060080010030006802700200000006,000000000000000000000000000000000000000000000000000000000000000000000000000000000
004108200080000050300000001500901003000000000700604002800000005030000040001406700,000000000000000000000000000000000000000000000000000000000000000000000000000000000
350000024190050087008000100000108000020000030000703000009000500470060091810000072,000000000000000000000000000000000000000000000000000000000000000000000000000000000
050009000040050012008020700600000000092010480000000005007080300360090020000600040,000000000000000000000000000000000000000000000000000000000000000000000000000000000
901802304000000000200104008102000806000070000407000901800403007000000000305708109,000000000000000000000000000000000000000000000000000000000000000000000000000000000
700000009002709600030050020020905080005000900080604070050020090006503400400000005,000000000000000000000000000000000000000000000000000000000000000000000000000000000
004900007090030080300001400700006200010070040008500009009200005060010070400009800,000000000000000000000000000000000000000000000000000000000000000000000000000000000
004800001010050040600009300500002800080030060001400007008300006030080020100005700,000000000000000000000000000000000000000000000000000000000000000000000000000000000
300060002000703000004010500060000010503040708020000050008030100000209000900050004,000000000000000000000000000000000000000000000000000000000000000000000000000000000
906504103000000000400607002201000607000050000503000801700201004000000000309705206,000000000000000000000000000000000000000000000000000000000000000000000000000000000
002009007010030060500100200600200700020060040007008006001007005070010080900400300,000000000000000000000000000000000000000000000000000000000000000000000000000000000
009001007060050010800400500700200600090030080005009001004003002030080040900100700,000000000000000000000000000000000000000000000000000000000000000000000000000000000
006100008080030010700008500300004700040020060002600009008400002020070030900002100,000000000000000000000000000000000000000000000000000000000000000000000000000000000
009200006050060030100009700600002300080030090007800002008900007060010050900006100,000000000000000000000000000000000000000000000000000000000000000000000000000000000
200030006003908200070000090080000010400020008010000070050000020001704600600090004,000000000000000000000000000000000000000000000000000000000000000000000000000000000
500000003093602540070000080020060030000705000080030050010000090037809620600000004,000000000000000000000000000000000000000000000000000000000000000000000000000000000
004000900050204030100080005090408020007000500040601090900040008070103050003000600,000000000000000000000000000000000000000000000000000000000000000000000000000000000
009400001050070060600002500800007200010090030005600008008200007090040010700001600,000000000000000000000000000000000000000000000000000000000000000000000000000000000
500900200007004000020070009700300040004010800090008006100060050000700600006002007,000000000000000000000000000000000000000000000000000000000000000000000000000000000
008003001010020060300600400900400800030090070006002005005001002040070080700200500,000000000000000000000000000000000000000000000000000000000000000000000000000000000
000000000010050080602100904001000005070080090200000400904002601030060070000000000,000000000000000000000000000000000000000000000000000000000000000000000000000000000
005006004040030050100700600600500700030070040004002009007008002050090030800200400,000000000000000000000000000000000000000000000000000000000000000000000000000000000
004050090100300500050060007000000010805010406020000000900040050008006004030090100,000000000000000000000000000000000000000000000000000000000000000000000000000000000
000400000060080030804000507500000400030020060006000005207000106080070020000009000,000000000000000000000000000000000000000000000000000000000000000000000000000000000
200080006070301020008020100090000010605000308080000090004060500060805070800090003,000000000000000000000000000000000000000000000000000000000000000000000000000000000
900050004010607050003000700030401080800070006060908040005000100080705090300040005,000000000000000000000000000000000000000000000000000000000000000000000000000000000
800000400090050010300100800009000006050060020100000900003004009020090070008000003,000000000000000000000000000000000000000000000000000000000000000000000000000000000
070104300000000005301080400400070009008205100600040003009050201100000000002603070,000000000000000000000000000000000000000000000000000000000000000000000000000000000
006009003090050010100300500600200900080070030004006007009007001020090050800100200,000000000000000000000000000000000000000000000000000000000000000000000000000000000
000000000050080070806002401400000200080090030001000006609300102040060050000000000,000000000000000000000000000000000000000000000000000000000000000000000000000000000
000000000008701400010040070030105020001020900060804030020070040003608500000000000,000000000000000000000000000000000000000000000000000000000000000000000000000000000
709000203000010000300207009006000700050040060008000300400801007000030000802000506,000000000000000000000000000000000000000000000000000000000000000000000000000000000
800000005021000780057080260000401000005020900000609000098030650036000820500000001,000000000000000000000000000000000000000000000000000000000000000000000000000000000
002008004050020060900100200200700600080040010007003008001002006020050040600400700,000000000000000000000000000000000000000000000000000000000000000000000000000000000
500010009000607000004030200070000060609070401050000080003020800000304000900060003,000000000000000000000000000000000000000000000000000000000000000000000000000000000
